…
### Get block centroids

Applying the `get.block.centroids()` function to the DIABLO model from above
gives the following:

```R
get.block.centroids(diablo.model)
## A tibble: 150 x 4
## Groups:   sample [150]
##    sample label comp1   comp2
##     <int> <fct> <dbl>   <dbl>
##  1      1 Basal  2.38  2.22  
##  2      2 Basal  1.74  2.03  
##  3      3 Basal  2.28 -0.0206
##  4      4 Basal  1.54  1.46  
##  5      5 Basal  1.93 -1.17  
## ... with 145 more rows
```
…
